====================
#debian-ctte Meeting
====================


Meeting started by OdyX at 18:58:57 UTC. The full logs are available at
http://meetbot.debian.net/debian-ctte/2018/debian-ctte.2018-03-21-18.58.log.html
.



Meeting summary
---------------
* round of names.  (OdyX, 18:59:00)

* Review of previous meetings' TODOs  (OdyX, 19:00:37)

* #877024 modemmanager should ask before messing with serial ports
  (OdyX, 19:01:18)
  * ACTION: fil to close #877024 pointing to the #683839 bug closure.
    (OdyX, 19:03:41)

* #893200 TC Chair election  (OdyX, 19:04:39)
  * ACTION: everyone to vote for the TC chair in #892300 before Sat 24
    09:25 UTC.  (OdyX, 19:18:16)
  * ACTION: Marga will take the secretarial duties (meeting agenda,
    meeting emails, chairing meetings, etc). Regardless of the outcome
    of the vote.  (marga, 19:18:16)

* Welcome smcv  (OdyX, 19:18:38)

* Further rounds of nominations  (OdyX, 19:20:03)

* Additional Business  (OdyX, 19:23:51)

Meeting ended at 19:32:59 UTC.




Action Items
------------
* fil to close #877024 pointing to the #683839 bug closure.
* everyone to vote for the TC chair in #892300 before Sat 24 09:25 UTC.
* Marga will take the secretarial duties (meeting agenda, meeting
  emails, chairing meetings, etc). Regardless of the outcome of the
  vote.




Action Items, by person
-----------------------
* fil
  * fil to close #877024 pointing to the #683839 bug closure.
* **UNASSIGNED**
  * everyone to vote for the TC chair in #892300 before Sat 24 09:25
    UTC.
  * Marga will take the secretarial duties (meeting agenda, meeting
    emails, chairing meetings, etc). Regardless of the outcome of the
    vote.




People Present (lines said)
---------------------------
* OdyX (51)
* gwolf (37)
* marga (30)
* fil (19)
* Mithrandir (10)
* ntyni (9)
* smcv (6)
* MeetBot (2)
* bremner (2)
* dondelelcaro (1)




Generated by `MeetBot`_ 0.1.4

.. _`MeetBot`: http://wiki.debian.org/MeetBot
