====================
#debian-ctte Meeting
====================


Meeting started by OdyX at 18:02:08 UTC. The full logs are available at
http://meetbot.debian.net/debian-ctte/2016/debian-ctte.2016-08-30-18.02.log.html
.



Meeting summary
---------------
* LINK:
  http://meetbot.debian.net/debian-ctte/2016/debian-ctte.2016-08-30-18.02.html
  <- it records indeed.  (OdyX, 18:02:40)
* Next Meetings ?  (OdyX, 18:04:34)

* #835507 Please clarify that sysvinit support decision is not going to
  ex\  (hartmans, 18:06:48)

* #835507 Please clarify that sysvinit support decision is not going to
  expire  (hartmans, 18:07:10)
  * AGREED: Mithrandir will close the bug unless someone requests a
    formal vote.  (hartmans, 18:15:26)

* New members process; need a champion  (hartmans, 18:23:32)
  * ACTION: OdyX to start something on systemd in policy, counting on TC
    members' constructive support.  (OdyX, 18:24:34)
  * ACTION: dondelelcaro To send emails starting our membership process.
    (hartmans, 18:27:24)

* #741573 Menu System Policy  (OdyX, 18:30:19)

* Additional Business  (hartmans, 18:31:31)

Meeting ended at 18:34:33 UTC.




Action Items
------------
* OdyX to start something on systemd in policy, counting on TC members'
  constructive support.
* dondelelcaro To send emails starting our membership process.




Action Items, by person
-----------------------
* dondelelcaro
  * dondelelcaro To send emails starting our membership process.
* OdyX
  * OdyX to start something on systemd in policy, counting on TC
    members' constructive support.
* **UNASSIGNED**
  * (none)




People Present (lines said)
---------------------------
* OdyX (52)
* hartmans (51)
* dondelelcaro (15)
* Mithrandir (10)
* fil (8)
* MeetBot (3)
* keithp (3)




Generated by `MeetBot`_ 0.1.4

.. _`MeetBot`: http://wiki.debian.org/MeetBot
